<?xml version="1.0" encoding="UTF-8"?>
<svg width="16px" height="12px" viewBox="0 0 16 12" version="1.1" xmlns="http://www.w3.org/2000/svg" xmlns:xlink="http://www.w3.org/1999/xlink">
    <!-- Generator: Sketch 49.2 (51160) - http://www.bohemiancoding.com/sketch -->
    <title>email</title>
    <desc>Created with Sketch.</desc>
    <defs></defs>
    <g id="Desktop-HD" stroke="none" stroke-width="1" fill="none" fill-rule="evenodd">
        <g id="7.-management" transform="translate(-666.000000, -409.000000)" fill="#21145F">
            <g id="1" transform="translate(362.000000, 216.000000)">
                <path d="M320,196.869317 L320,203.636364 C320,204.011365 319.86012,204.332385 319.580358,204.599432 C319.300594,204.866479 318.964288,205 318.571428,205 L305.428571,205 C305.035712,205 304.699406,204.866479 304.419643,204.599432 C304.13988,204.332385 304,204.011365 304,203.636364 L304,196.869317 C304.261906,197.147727 304.562498,197.394884 304.901786,197.610795 C307.056558,199.00853 308.53571,199.988634 309.339286,200.551136 C309.678574,200.789773 309.953868,200.975852 310.165178,201.109376 C310.37649,201.242897 310.657736,201.37926 311.008928,201.518465 C311.36012,201.65767 311.687498,201.727272 311.991072,201.727272 L312,201.727272 L312.008928,201.727272 C312.312502,201.727272 312.63988,201.65767 312.991072,201.518465 C313.342264,201.37926 313.62351,201.242897 313.834822,201.109376 C314.046132,200.975852 314.321426,200.789773 314.660714,200.551136 C315.672624,199.85227 317.154752,198.872165 319.107142,197.610795 C319.44643,197.389203 319.744046,197.142046 320,196.869317 Z M320,194.363635 C320,194.812502 319.854168,195.241475 319.5625,195.650569 C319.270832,196.05966 318.90774,196.409089 318.473214,196.698864 C316.235108,198.181825 314.842264,199.105111 314.294642,199.468751 C314.235118,199.508523 314.108632,199.595169 313.915178,199.728692 C313.721726,199.862216 313.561012,199.970169 313.433036,200.052556 C313.305058,200.134943 313.150298,200.227273 312.96875,200.329544 C312.787202,200.431818 312.616072,200.508522 312.455358,200.559659 C312.294642,200.610796 312.145834,200.636364 312.008928,200.636364 L312,200.636364 L311.991072,200.636364 C311.854166,200.636364 311.705358,200.610796 311.544642,200.559659 C311.383928,200.508522 311.212798,200.431818 311.03125,200.329544 C310.849702,200.227273 310.694942,200.134943 310.566964,200.052556 C310.438988,199.970169 310.278274,199.862216 310.084822,199.728692 C309.891368,199.595169 309.764882,199.508523 309.705358,199.468751 C309.163688,199.105111 308.383934,198.586651 307.366072,197.913351 C306.34821,197.240053 305.738096,196.835228 305.535714,196.698864 C305.166665,196.460226 304.818454,196.132104 304.491071,195.714489 C304.163689,195.296873 304,194.909093 304,194.551136 C304,194.107952 304.123511,193.738637 304.370536,193.443182 C304.617561,193.147725 304.970236,193 305.428571,193 L318.571428,193 C318.958336,193 319.293154,193.13352 319.575892,193.400567 C319.858632,193.667615 320,193.988634 320,194.363635 Z" id="email"></path>
            </g>
        </g>
    </g>
</svg>