<?xml version="1.0" encoding="UTF-8"?>
<svg width="36px" height="34px" viewBox="0 0 36 34" version="1.1" xmlns="http://www.w3.org/2000/svg" xmlns:xlink="http://www.w3.org/1999/xlink">
    <!-- Generator: Sketch 49.2 (51160) - http://www.bohemiancoding.com/sketch -->
    <title>hand-icon</title>
    <desc>Created with Sketch.</desc>
    <defs></defs>
    <g id="Desktop-HD" stroke="none" stroke-width="1" fill="none" fill-rule="evenodd">
        <g id="5.2.-beneficial-for-all-chained" transform="translate(-685.000000, -404.000000)" fill="#FB3883">
            <g id="tip" transform="translate(586.000000, 394.000000)">
                <path d="M113.142859,11.2857152 C112.433033,11.2857152 111.827014,11.5368287 111.324778,12.0390602 C110.822542,12.5412962 110.571428,13.1473157 110.571428,13.8571412 L110.571428,24.1428542 L110.571428,31.8571412 L107.537947,27.7991042 C106.988839,27.0758867 106.272326,26.7142847 105.388396,26.7142847 C104.691962,26.7142847 104.095985,26.9687462 103.600447,27.4776782 C103.104909,27.9866102 102.857144,28.5892817 102.857144,29.2857152 C102.857144,29.8616072 103.031249,30.3772307 103.379465,30.8325902 L111.093752,41.1183028 C111.602684,41.8013416 112.285712,42.142856 113.142859,42.142856 L127.566965,42.142856 C127.861612,42.142856 128.126117,42.0524551 128.360491,41.8716509 C128.594869,41.6908463 128.745538,41.4598217 128.812502,41.1785704 L130.660715,33.7857152 C130.982146,32.4999932 131.142859,31.2008972 131.142859,29.8883912 L131.142859,25.5290162 C131.142859,24.9799082 130.955362,24.5044652 130.580359,24.1026782 C130.205356,23.7008912 129.750005,23.4999977 129.214285,23.4999977 C128.678569,23.4999977 128.223218,23.6874992 127.848215,24.0624977 C127.473212,24.4375007 127.285715,24.8928557 127.285715,25.4285717 L126.642859,25.4285717 L126.642859,24.2031227 C126.642859,23.5602617 126.428573,23.0145107 126.000002,22.5658472 C125.571427,22.1171837 125.03572,21.8928542 124.392859,21.8928542 C123.776782,21.8928542 123.247771,22.1138357 122.805803,22.5558032 C122.36384,22.9977707 122.142859,23.5267817 122.142859,24.1428542 L122.142859,25.4285717 L121.500002,25.4285717 L121.500002,23.6205347 C121.500002,22.8839252 121.252237,22.2511172 120.756697,21.7220972 C120.261161,21.1930772 119.651789,20.9285717 118.928572,20.9285717 C118.218746,20.9285717 117.612727,21.1796852 117.110491,21.6819167 C116.608259,22.1841527 116.357146,22.7901722 116.357146,23.4999977 L116.357146,25.4285717 L115.714285,25.4285717 L115.714285,13.9776782 C115.714285,13.2410687 115.466519,12.6082607 114.970984,12.0792407 C114.475444,11.5502207 113.866076,11.2857152 113.142859,11.2857152 Z M113.142859,8.71428475 C114.575902,8.71428475 115.791289,9.23325175 116.789065,10.2712037 C117.786836,11.3091557 118.285715,12.5446352 118.285715,13.9776782 L118.285715,18.3973217 C118.580362,18.3705332 118.794643,18.3571412 118.928572,18.3571412 C120.25447,18.3571412 121.412941,18.8191922 122.404021,19.7433032 C123.033485,19.4620532 123.696425,19.3214282 124.392859,19.3214282 C125.906258,19.3214282 127.13839,19.9040117 128.089285,21.0691967 C128.450896,20.9754437 128.82589,20.9285717 129.214285,20.9285717 C130.473223,20.9285717 131.537945,21.3805742 132.408484,22.2845972 C133.279022,23.1886202 133.714285,24.2700827 133.714285,25.5290162 L133.714285,29.8883912 C133.714285,31.4419712 133.526788,32.9486522 133.151785,34.4084792 L131.303572,41.8013384 C131.089286,42.6584854 130.633931,43.3582552 129.937502,43.9006685 C129.241069,44.4430821 128.4509,44.7142847 127.566965,44.7142847 L113.142859,44.7142847 C112.339285,44.7142847 111.572548,44.5301348 110.842634,44.1618292 C110.112721,43.793524 109.506701,43.294645 109.024553,42.6651778 L101.310269,32.3794652 C100.62723,31.4687462 100.285715,30.4375037 100.285715,29.2857152 C100.285715,27.8794562 100.784594,26.6707652 101.782367,25.6595972 C102.78014,24.6484292 103.982137,24.1428542 105.388396,24.1428542 C106.339291,24.1428542 107.20982,24.3772277 108.000002,24.8459792 L108.000002,13.8571412 C108.000002,12.4374902 108.502229,11.2254512 109.506697,10.2209792 C110.511169,9.21651175 111.723208,8.71428475 113.142859,8.71428475 Z M115.071428,36.9999977 L115.071428,29.2857152 L115.714285,29.2857152 L115.714285,36.9999977 L115.071428,36.9999977 Z M120.214285,36.9999977 L120.214285,29.2857152 L120.857146,29.2857152 L120.857146,36.9999977 L120.214285,36.9999977 Z M125.357146,36.9999977 L125.357146,29.2857152 L126.000002,29.2857152 L126.000002,36.9999977 L125.357146,36.9999977 Z" id="hand-icon" transform="translate(117.000000, 26.714285) rotate(90.000000) translate(-117.000000, -26.714285) "></path>
            </g>
        </g>
    </g>
</svg>